{
    "domainStrategy": "IPOnDemand",
    "rules": [
        {
            "type": "field",
            "outboundTag": "block",
            "ip": [
                "geoip:private"
            ]
        },
        {
            "type": "field",
            "outboundTag": "block",
            "protocol": [
                "bittorrent"
            ]
        },
        {
            "type": "field",
            "outboundTag": "block",
            "domain": [
                "geosite:tencent"
            ]
        }
    ]
}
